<?xml version="1.0" encoding="utf-8"?>
<!-- Generator: Adobe Illustrator 22.1.0, SVG Export Plug-In . SVG Version: 6.00 Build 0)  -->
<svg version="1.1" id="Layer_1" xmlns="http://www.w3.org/2000/svg" xmlns:xlink="http://www.w3.org/1999/xlink" x="0px" y="0px"
	 viewBox="0 0 63.3 69.2" style="enable-background:new 0 0 63.3 69.2;" xml:space="preserve">
<style type="text/css">
	.st0{fill:#00A8C8;}
	.st1{display:none;}
	.st2{display:inline;fill:#45555F;}
	.st3{display:inline;}
	.st4{fill:#45555F;}
</style>
<g id="Layer_1_1_">
	<g>
		<path class="st0" d="M54.1,5.2c-14.6-4.8-30.7-4.8-45.3,0c-3.8,1.2-6.6,5-6.6,8.9v26.1c0,3.3,1.8,8.6,4.6,11.6
			c10.8,11,17.5,16.7,24.6,16.7S45.2,62.9,56,51.8c2.8-2.9,4.6-8.3,4.6-11.6V14.1C60.7,10.3,57.8,6.4,54.1,5.2z M56.1,14.1v26.1
			c0,2.4-1.4,6.4-3.3,8.4c-9.9,10.1-15.9,15.3-21.3,15.3s-11.4-5.1-21.3-15.3c-2-2-3.3-6.1-3.3-8.4V14.1c0-1.9,1.5-4,3.4-4.6
			c6.9-2.3,14-3.4,21.2-3.4s14.4,1.2,21.2,3.4C54.5,10.1,56.1,12.3,56.1,14.1z"/>
		<path class="st0" d="M51.2,12.5c-12.7-4.1-26.7-4.1-39.4,0c-0.9,0.3-1.6,1.2-1.6,2.2v25.4c0,1.6,1.2,4.8,2.4,6.1
			c7,7.2,14.3,14.3,18.9,14.3s11.6-6.7,18.9-14.2c1.2-1.3,2.4-4.5,2.4-6.1V14.7C52.8,13.7,52.2,12.8,51.2,12.5z M33.9,55V14.1
			c4.9,0.2,9.7,1,14.3,2.3v23.7c0,0.5-0.8,2.6-1.2,3C44.3,46,38,52.4,33.9,55z M29.1,14.1V55c-4.1-2.5-10.5-9-13.2-11.9
			c-0.3-0.3-1.1-2.4-1.1-2.9V16.4C19.4,15.1,24.2,14.3,29.1,14.1z"/>
	</g>
</g>
<g id="Layer_2_1_" class="st1">
	<path class="st2" d="M61.9,45.5l-1.6-0.4c0.1-0.7,0.1-1.5,0.1-2.2s0-1.5-0.1-2.2l1.6-0.4c1.2-0.3,1.9-1.3,1.9-2.4
		c0-0.2,0-0.4-0.1-0.6c-0.3-1.3-1.7-2.2-3-1.9L59,35.8c-0.5-1.4-1.2-2.8-1.9-4l1.3-1.1c0.6-0.5,0.9-1.2,0.9-2c0-0.5-0.2-1.1-0.5-1.6
		c-0.9-1.1-2.4-1.3-3.5-0.4L54,27.8c-1.1-1-2.2-2-3.5-2.8l0.7-1.5c0.2-0.3,0.2-0.7,0.2-1.1c0-0.9-0.5-1.8-1.4-2.3
		c-1.2-0.6-2.7-0.1-3.3,1.2L46,22.9c-1.4-0.5-2.9-0.8-4.4-1v-1.7c0-1.4-1.1-2.5-2.5-2.5s-2.5,1.1-2.5,2.5v1.7c-1.5,0.2-3,0.5-4.4,1
		l-0.7-1.5c-0.6-1.2-2.1-1.8-3.3-1.2c-0.9,0.4-1.4,1.3-1.4,2.3c0,0.4,0.1,0.7,0.2,1.1l0.7,1.5c-1.3,0.8-2.4,1.7-3.5,2.8L23,26.8
		c-1.1-0.9-2.7-0.7-3.5,0.4c-0.4,0.5-0.5,1-0.5,1.6c0,0.7,0.3,1.5,0.9,2l1.3,1.1c-0.8,1.3-1.4,2.6-1.9,4l-1.7-0.4
		c-1.3-0.3-2.7,0.5-3,1.9c0,0.2-0.1,0.4-0.1,0.6c0,1.1,0.8,2.2,1.9,2.4l1.6,0.4c0,0.6,0,1.3,0,2.1s0,1.5,0.1,2.2l-1.6,0.4
		c-1.2,0.3-1.9,1.3-1.9,2.4c0,0.2,0,0.4,0.1,0.6c0.3,1.3,1.7,2.2,3,1.9l1.7-0.4c0.5,1.4,1.2,2.8,1.9,4L20,55.1
		c-0.6,0.5-0.9,1.2-0.9,2c0,0.5,0.2,1.1,0.5,1.6c0.9,1.1,2.4,1.3,3.5,0.4l1.3-1.1c1.1,1,2.2,2,3.5,2.8l-0.7,1.5
		C27,62.6,27,63,27,63.4c0,0.9,0.5,1.8,1.4,2.3c1.2,0.6,2.7,0.1,3.3-1.2l0.7-1.5c1.4,0.5,2.9,0.8,4.4,1v1.7c0,1.4,1.1,2.5,2.5,2.5
		s2.5-1.1,2.5-2.5V64c1.5-0.2,3-0.5,4.4-1l0.7,1.5c0.6,1.2,2.1,1.8,3.3,1.2c0.9-0.4,1.4-1.3,1.4-2.3c0-0.4-0.1-0.7-0.2-1.1l-0.7-1.5
		c1.3-0.8,2.4-1.7,3.5-2.8l1.3,1.1c1.1,0.9,2.7,0.7,3.5-0.4c0.4-0.5,0.5-1,0.5-1.6c0-0.7-0.3-1.5-0.9-2L57.2,54
		c0.8-1.3,1.4-2.6,1.9-4l1.7,0.4c1.3,0.3,2.7-0.5,3-1.9c0-0.2,0.1-0.4,0.1-0.6C63.8,46.8,63,45.8,61.9,45.5z M39.2,59.1
		c-8.9,0-16.2-7.3-16.2-16.2s7.3-16.2,16.2-16.2S55.4,34,55.4,42.9S48.1,59.1,39.2,59.1z"/>
	<circle class="st2" cx="39.2" cy="42.9" r="11.8"/>
	<path class="st2" d="M24.7,11.1H24C23.7,10,23.3,9,22.7,8l0.5-0.5C23.7,7,24,6.4,24,5.8S23.7,4.5,23.2,4c-1-1-2.6-1-3.5,0l-0.5,0.5
		c-0.9-0.6-2-1-3.1-1.3V2.5C16.1,1.1,15,0,13.6,0s-2.5,1.1-2.5,2.5v0.7C10,3.5,9,3.9,8,4.5L7.5,4C6.5,3,5,3,4,4
		C3.5,4.5,3.3,5.1,3.3,5.8S3.5,7,4,7.5L4.5,8c-0.6,0.9-1,2-1.3,3.1H2.5c-1.4,0-2.5,1.1-2.5,2.5s1.1,2.5,2.5,2.5h0.7
		c0.3,1.1,0.7,2.1,1.3,3.1L4,19.7c-0.5,0.5-0.7,1.1-0.7,1.8s0.2,1.3,0.7,1.8c1,1,2.6,1,3.5,0L8,22.7c0.9,0.6,2,1,3.1,1.3v0.7
		c0,1.4,1.1,2.5,2.5,2.5s2.5-1.1,2.5-2.5V24c1.1-0.3,2.1-0.7,3.1-1.3l0.5,0.5c1,1,2.6,1,3.5,0c0.5-0.5,0.7-1.1,0.7-1.8
		s-0.2-1.3-0.7-1.8l-0.5-0.5c0.6-0.9,1-2,1.3-3.1h0.7c1.4,0,2.5-1.1,2.5-2.5S26.1,11.1,24.7,11.1z M13.6,19.3
		c-3.1,0-5.7-2.6-5.7-5.7s2.6-5.7,5.7-5.7s5.7,2.6,5.7,5.7S16.8,19.3,13.6,19.3z"/>
</g>
<g id="Layer_3" class="st1">
	<g class="st3">
		<path class="st4" d="M60.2,58.8L47.9,46.5l0.3-0.3c3.6-4.4,5.6-10,5.6-15.7c0-13.7-11.2-24.9-24.9-24.9C15.2,5.5,4,16.7,4,30.4
			s11.2,24.9,24.9,24.9c5.3,0,10.4-1.7,14.7-4.8l0.3-0.3l12.4,12.4c1,1,2.8,1,3.9,0c0.5-0.5,0.8-1.2,0.8-1.9S60.7,59.3,60.2,58.8z
			 M28.9,49.8c-10.7,0-19.4-8.7-19.4-19.4S18.2,11,28.9,11s19.4,8.7,19.4,19.4S39.6,49.8,28.9,49.8z"/>
		<path class="st4" d="M21.5,26.4c-1.4,0-2.5,1.1-2.5,2.5v9.7c0,1.4,1.1,2.5,2.5,2.5S24,40,24,38.6v-9.7
			C24,27.5,22.8,26.4,21.5,26.4z"/>
		<path class="st4" d="M28.9,20.2c-1.4,0-2.5,1.1-2.5,2.5v15.9c0,1.4,1.1,2.5,2.5,2.5s2.5-1.1,2.5-2.5V22.7
			C31.4,21.3,30.3,20.2,28.9,20.2z"/>
		<path class="st4" d="M36.3,23.2c-1.4,0-2.5,1.1-2.5,2.5v12.9c0,1.4,1.1,2.5,2.5,2.5s2.5-1.1,2.5-2.5V25.7
			C38.8,24.3,37.7,23.2,36.3,23.2z"/>
	</g>
</g>
</svg>
