<?xml version="1.0" encoding="utf-8"?>
<!-- Generator: Adobe Illustrator 21.1.0, SVG Export Plug-In . SVG Version: 6.00 Build 0)  -->
<!DOCTYPE svg PUBLIC "-//W3C//DTD SVG 1.1//EN" "http://www.w3.org/Graphics/SVG/1.1/DTD/svg11.dtd">
<svg version="1.1" id="Layer_1" xmlns="http://www.w3.org/2000/svg" xmlns:xlink="http://www.w3.org/1999/xlink" x="0px" y="0px"
	 width="402px" height="557px" viewBox="0 0 402 557" style="enable-background:new 0 0 402 557;" xml:space="preserve">
<style type="text/css">
	.st0{opacity:0.48;fill:#939598;enable-background:new    ;}
	.st1{opacity:0.48;fill:#C7C8CA;enable-background:new    ;}
	.st2{opacity:0.48;fill:#E6E7E8;enable-background:new    ;}
	.st3{opacity:0.48;fill:#636466;enable-background:new    ;}
</style>
<g>
	<path class="st0" d="M391.6,423.8l-35,60.6l-35,60.6l-35-60.6l-35-60.6h70L391.6,423.8 M402,417.8h-80.4h-80.4l40.2,69.6l40.2,69.6
		l40.2-69.6L402,417.8L402,417.8z"/>
	<path class="st1" d="M311.2,284.5l-35,60.6l-35,60.6l-35-60.6l-35-60.6h70H311.2 M321.6,278.5h-80.4h-80.4l40.2,69.6l40.2,69.6
		l40.2-69.6L321.6,278.5L321.6,278.5z"/>
	<path class="st2" d="M391.6,145.3l-35,60.6l-35,60.6l-35-60.6l-35-60.6h70H391.6 M402,139.2h-80.4h-80.4l40.2,69.6l40.2,69.6
		l40.2-69.6L402,139.2L402,139.2z"/>
	<path class="st1" d="M160.8,12l35,60.6l35,60.6h-70h-70l35-60.6L160.8,12 M160.8,0l-40.2,69.6l-40.2,69.6h80.4h80.4L201,69.6
		L160.8,0L160.8,0z"/>
	<path class="st3" d="M80.4,429.6l35,60.6l35,60.6h-70h-70l35-60.6L80.4,429.6 M80.4,417.6l-40.2,69.6L0,556.9h80.4h80.4l-40.2-69.6
		L80.4,417.6L80.4,417.6z"/>
</g>
</svg>
