<?xml version="1.0" standalone="no"?>
<!DOCTYPE svg PUBLIC "-//W3C//DTD SVG 1.1//EN" "http://www.w3.org/Graphics/SVG/1.1/DTD/svg11.dtd" >
<svg xmlns="http://www.w3.org/2000/svg">
<metadata>Generated by IcoMoon</metadata>
<defs>
<font id="icomoon" horiz-adv-x="1024">
<font-face units-per-em="1024" ascent="960" descent="-64" />
<missing-glyph horiz-adv-x="1024" />
<glyph unicode="&#x20;" horiz-adv-x="512" d="" />
<glyph unicode="&#xe900;" glyph-name="warning-ico" horiz-adv-x="1115" d="M557.734 304.105c33.464 0 62.466 26.771 62.466 62.466v220.863c0 33.464-26.771 62.466-62.466 62.466s-62.466-26.771-62.466-62.466v-220.863c0-33.464 29.002-62.466 62.466-62.466zM624.662 208.174c0-36.963-29.965-66.928-66.928-66.928s-66.928 29.965-66.928 66.928c0 36.963 29.965 66.928 66.928 66.928s66.928-29.965 66.928-66.928zM1075.312 257.255l-332.41 577.813c-46.85 80.314-111.547 124.932-185.168 124.932-71.39 0-138.318-44.619-185.168-124.932l-332.41-577.813c-46.85-80.314-53.542-160.627-15.617-223.094 35.695-62.466 107.085-98.161 200.784-98.161h667.050c93.699 0 165.089 33.464 200.784 98.161 35.695 62.466 29.002 142.78-17.847 223.094zM999.46 87.704v0c-15.617-29.002-55.773-44.619-109.316-44.619h-664.819c-53.542 0-93.699 15.617-109.316 44.619s-11.155 71.39 15.617 116.009l334.641 577.813c24.54 46.85 60.235 71.39 91.468 71.39s66.928-26.771 91.468-71.39l334.641-577.813c26.771-44.619 31.233-87.007 15.617-116.009z" />
<glyph unicode="&#xe901;" glyph-name="info-ico" d="M512 960c-282.624 0-512-229.376-512-512s229.376-512 512-512 512 229.376 512 512-229.376 512-512 512zM929.792 448c0-229.376-186.368-417.792-417.792-417.792s-417.792 188.416-417.792 417.792 188.416 417.792 417.792 417.792 417.792-188.416 417.792-417.792zM512 579.072c-30.72 0-55.296-24.576-55.296-55.296v-307.2c0-30.72 24.576-55.296 55.296-55.296s55.296 24.576 55.296 55.296v307.2c0 30.72-24.576 55.296-55.296 55.296zM567.296 681.472c0-30.539-24.757-55.296-55.296-55.296s-55.296 24.757-55.296 55.296c0 30.539 24.757 55.296 55.296 55.296s55.296-24.757 55.296-55.296z" />
<glyph unicode="&#xe902;" glyph-name="success-ico" horiz-adv-x="1156" d="M1139.576 943.819c-20.804 20.804-55.476 20.804-78.591 0l-316.677-316.677c-73.968 73.968-175.675 122.51-288.939 122.51s-217.282-48.542-291.251-124.822l-69.345 69.345c-20.804 20.804-55.476 20.804-78.591 0-20.804-20.804-20.804-55.476 0-78.591l80.903-80.903c-30.050-57.788-48.542-122.51-48.542-191.856 0-224.217 182.609-406.826 406.826-406.826s406.826 182.609 406.826 406.826c0 71.657-18.492 136.379-50.853 194.167l328.235 328.235c20.804 23.115 20.804 57.788 0 78.591zM455.368 638.7c83.214 0 157.183-34.673 212.659-90.149l-214.971-212.659-212.659 212.659c55.476 53.165 129.445 90.149 214.971 90.149zM751.242 342.826c0-164.117-131.756-295.874-295.874-295.874s-295.874 131.756-295.874 295.874c0 39.296 6.935 76.28 20.804 110.953l272.758-272.758 275.070 275.070c13.869-36.984 23.115-73.968 23.115-113.264z" />
</font></defs></svg>